Name	Theo_Area	Wet_Area	Theo_Vol	Wet_Vol	Min_Chord	Ave_Chord	Max_Chord	Min_TC_Ratio	Avg_TC_Ratio	Max_TC_Ratio	Ave_Sweep	Length	Max_Xsec_Area	Len_Dia_Ratio
Asa	54.115582	46.850585	2.440217	2.124023	0.000000	0.000000	0.000000	0.000000	0.000000	0.000000	0.000000	0.000000	0.000000	0.000000
EH	11.688073	11.561526	0.448478	0.446018	0.000000	0.000000	0.000000	0.000000	0.000000	0.000000	0.000000	0.000000	0.000000	0.000000
Fuselagem	84.184285	83.461564	44.839975	44.695000	0.000000	0.000000	0.000000	0.000000	0.000000	0.000000	0.000000	13.000000	9.818203	3.676819
EV	6.409233	5.483834	0.303482	0.261065	0.000000	0.000000	0.000000	0.000000	0.000000	0.000000	0.000000	0.000000	0.000000	0.000000
