Name, Theo_Area, Wet_Area, Theo_Vol, Wet_Vol
Asa,54.115582,46.850585,2.440217,2.124023
EH,11.688073,11.561526,0.448478,0.446018
Fuselagem,84.184285,83.461564,44.839975,44.695000
EV,6.409233,5.483834,0.303482,0.261065
Totals,156.397173,147.357510,48.032151,47.526105

Tag_Name, Tag_Theo_Area, Tag_Wet_Area
Asa_Surf0,27.057791,23.425293
Asa_Surf1,27.057791,23.425293
EH_Surf0,5.844036,5.780763
EH_Surf1,5.844036,5.780763
Fuselagem_Surf0,84.184285,83.461564
EV_Surf0,6.409233,5.483834
