***************************************************************************************************************************************************************************************** 

# Name                   Value      Units             
Sref_                  30.7396730 Lunit^2             
Cref_                   2.4865460 Lunit               
Bref_                  13.8000000 Lunit               
Xcg_                    1.3018530 Lunit               
Ycg_                    0.0000000 Lunit               
Zcg_                    0.0000000 Lunit               
Mach_                   0.0500000 no_unit             
AoA_                    0.0000000 deg                 
Beta_                   0.0000000 deg                 
Rho_                    1.0899690 Munit/Lunit^3       
Vinf_                  50.0000000 Lunit/Tunit         
Roll__Rate              0.0000000 rad/Tunit           
Pitch_Rate              0.0000000 rad/Tunit           
Yaw___Rate              0.0000000 rad/Tunit           



Solver Case: 1 

  Iter      Mach       AoA      Beta       CL         CDo       CDi      CDtot      CS        L/D        E        CFx       CFy       CFz       CMx       CMy       CMz       T/QS 
        1   0.05000   0.00000   0.00000   0.12563   0.04510   0.00875   0.05385  -0.00007   2.33305   0.09266   0.00315  -0.00007   0.12563   0.00003   0.59919  -0.00003   0.00000



Skin Friction Drag Break Out:


Surface                                      CDo 

Asa                                         0.00251 
Asa                                         0.00251 
EH                                          0.00163 
EH                                          0.00163 
EV                                          0.00116 
Fuselagem                                   0.00891 
Fuselagem                                   0.00891 
Fuselagem                                   0.00891 
Fuselagem                                   0.00891 
***************************************************************************************************************************************************************************************** 

# Name                   Value      Units             
Sref_                  30.7396730 Lunit^2             
Cref_                   2.4865460 Lunit               
Bref_                  13.8000000 Lunit               
Xcg_                    1.3018530 Lunit               
Ycg_                    0.0000000 Lunit               
Zcg_                    0.0000000 Lunit               
Mach_                   0.0500000 no_unit             
AoA_                   15.0000000 deg                 
Beta_                   0.0000000 deg                 
Rho_                    1.0899690 Munit/Lunit^3       
Vinf_                  50.0000000 Lunit/Tunit         
Roll__Rate              0.0000000 rad/Tunit           
Pitch_Rate              0.0000000 rad/Tunit           
Yaw___Rate              0.0000000 rad/Tunit           



Solver Case: 2 

  Iter      Mach       AoA      Beta       CL         CDo       CDi      CDtot      CS        L/D        E        CFx       CFy       CFz       CMx       CMy       CMz       T/QS 
        1   0.05000  15.00000   0.00000   1.25338   0.05423   0.08798   0.14221   0.00001   8.81349   0.91743  -0.27402   0.00001   1.22418   0.00002   0.05115   0.00004   0.00000



Skin Friction Drag Break Out:


Surface                                      CDo 

Asa                                         0.00727 
Asa                                         0.00727 
EH                                          0.00148 
EH                                          0.00148 
EV                                          0.00108 
Fuselagem                                   0.00891 
Fuselagem                                   0.00891 
Fuselagem                                   0.00891 
Fuselagem                                   0.00891 
***************************************************************************************************************************************************************************************** 

# Name                   Value      Units             
Sref_                  30.7396730 Lunit^2             
Cref_                   2.4865460 Lunit               
Bref_                  13.8000000 Lunit               
Xcg_                    1.3018530 Lunit               
Ycg_                    0.0000000 Lunit               
Zcg_                    0.0000000 Lunit               
Mach_                   0.0500000 no_unit             
AoA_                    0.0000000 deg                 
Beta_                   5.0000000 deg                 
Rho_                    1.0899690 Munit/Lunit^3       
Vinf_                  50.0000000 Lunit/Tunit         
Roll__Rate              0.0000000 rad/Tunit           
Pitch_Rate              0.0000000 rad/Tunit           
Yaw___Rate              0.0000000 rad/Tunit           



Solver Case: 3 

  Iter      Mach       AoA      Beta       CL         CDo       CDi      CDtot      CS        L/D        E        CFx       CFy       CFz       CMx       CMy       CMz       T/QS 
        1   0.05000   0.00000   5.00000   0.12378   0.04520   0.01109   0.05629  -0.07192   2.19898   0.07098  -0.00218  -0.07200   0.12378   0.01298   0.58869  -0.02424   0.00000



Skin Friction Drag Break Out:


Surface                                      CDo 

Asa                                         0.00240 
Asa                                         0.00257 
EH                                          0.00156 
EH                                          0.00169 
EV                                          0.00132 
Fuselagem                                   0.00891 
Fuselagem                                   0.00891 
Fuselagem                                   0.00891 
Fuselagem                                   0.00891 
***************************************************************************************************************************************************************************************** 

# Name                   Value      Units             
Sref_                  30.7396730 Lunit^2             
Cref_                   2.4865460 Lunit               
Bref_                  13.8000000 Lunit               
Xcg_                    1.3018530 Lunit               
Ycg_                    0.0000000 Lunit               
Zcg_                    0.0000000 Lunit               
Mach_                   0.0500000 no_unit             
AoA_                   15.0000000 deg                 
Beta_                   5.0000000 deg                 
Rho_                    1.0899690 Munit/Lunit^3       
Vinf_                  50.0000000 Lunit/Tunit         
Roll__Rate              0.0000000 rad/Tunit           
Pitch_Rate              0.0000000 rad/Tunit           
Yaw___Rate              0.0000000 rad/Tunit           



Solver Case: 4 

  Iter      Mach       AoA      Beta       CL         CDo       CDi      CDtot      CS        L/D        E        CFx       CFy       CFz       CMx       CMy       CMz       T/QS 
        1   0.05000  15.00000   5.00000   1.24311   0.05412   0.08703   0.14115  -0.05109   8.80726   0.91232  -0.27622  -0.05540   1.21295   0.01718   0.05096  -0.02463   0.00000



Skin Friction Drag Break Out:


Surface                                      CDo 

Asa                                         0.00687 
Asa                                         0.00739 
EH                                          0.00156 
EH                                          0.00140 
EV                                          0.00124 
Fuselagem                                   0.00891 
Fuselagem                                   0.00891 
Fuselagem                                   0.00891 
Fuselagem                                   0.00891 
